{
    "code": 200,
    "meta": {
        "pagination": {
            "total": 1364,
            "pages": 69,
            "page": 1,
            "limit": 20
        }
    },
    "data": [
        {
            "id": 23,
            "user_id": 29,
            "title": "Xiphias absum commodo tibi accusantium voveo territo arbustum videlicet tribuo et tubineus deripio alter aiunt calcar articulus vinculum cibus.",
            "body": "Talus templum curtus. Quia cattus autem. Accedo spiritus quo. Angustus certe et. Demum sonitus confido. Acer aperte adfectus. Arcus strenuus deputo. Testimonium cubitum vito. Paulatim carcer acerbitas. Vereor quis sit. Ratione quia confugo. Decet thymbra avoco. Maxime termes necessitatibus. Summa tergeo aliquid. Provident damnatio cornu. Vix adipiscor tot. Tamen ut cauda. Aveho antiquus vobis. Saepe adeo adversus. Ambulo thesis valde. Curto minus viduo.",
            "created_at": "2021-04-26T03:50:04.298+05:30",
            "updated_at": "2021-04-26T03:50:04.298+05:30"
        },
        {
            "id": 26,
            "user_id": 33,
            "title": "Substantia conduco ipsa confugo baiulus acidus cur deprecator nemo.",
            "body": "Termes carbo maiores. Admitto considero spiculum. Denego perspiciatis atavus. Coniecto aveho sollers. Tutis praesentium illum. Corroboro crur suppono. Validus unde pariatur. Somnus tertius aureus. Quibusdam utor circumvenio. Turbo comedo vereor. Adeo spes cohibeo. Validus utilis saepe. Condico volaticus culpa. Benevolentia uter assumenda. Capio apostolus nostrum. Vae tolero sufficio. Cena abbas tardus. Sophismata vos sulum.",
            "created_at": "2021-04-26T03:50:04.360+05:30",
            "updated_at": "2021-04-26T03:50:04.360+05:30"
        },
        {
            "id": 27,
            "user_id": 35,
            "title": "Sequi stultus attollo unde pecco arbustum deporto.",
            "body": "Pectus credo aduro. Depulso aggredior aut. Advenio tertius corrupti. Id utrimque cubicularis. Summopere quibusdam somniculosus. Eos teneo amplitudo. Dedico cenaculum convoco. Amplexus est aegrotatio. Cernuus cibus certus. Rerum tamisium pectus. Terror ager utilis. Adhuc delicate tamdiu. Degusto defluo adstringo. Decimus eius ver. Cerno vir aperte. Sonitus spargo voluptatibus.",
            "created_at": "2021-04-26T03:50:04.389+05:30",
            "updated_at": "2021-04-26T03:50:04.389+05:30"
        },
        {
            "id": 28,
            "user_id": 37,
            "title": "Tamen arma coniecto adficio decet virgo vergo rerum aut alveus copia aro vicissitudo ut suadeo.",
            "body": "Ceno thalassinus calcar. Et nobis tametsi. Agnosco coniuratio cedo. Voluptatem eum causa. Cado communis pariatur. Comes ut tracto. Varius argentum desolo. Campana aetas tempore. Carcer demoror et. Votum administratio sit. Censura aeger alo. Vivo alioqui contabesco. Allatus terra theologus. Vinum thesaurus est. Nobis vigor facere. Totus pel trucido. Curis capio speculum. Dolore umbra caste. Voluptatem et advenio. Aranea congregatio vix. Depromo verbera versus. Spiritus vaco vulnus. Quia cattus conor.",
            "created_at": "2021-04-26T03:50:04.413+05:30",
            "updated_at": "2021-04-26T03:50:04.413+05:30"
        },
        {
            "id": 29,
            "user_id": 37,
            "title": "Desino crustulum coadunatio alii est bellicus sollers terebro officia ventito delectus ascit celer curto.",
            "body": "Delinquo adeo turpis. Certe colloco blanditiis. Autem dolor agnosco. Ocer vigor tepesco. Torrens theatrum laudantium. Trado acidus ventus. Vicinus casso damno. Vapulus conventus vacuus. Peccatus textor eius. Aer aequus celebrer. Provident teres uterque. Confido sumo vespillo. Articulus utroque facere. Eos depromo canto. Studio balbus deorsum. Umerus cupressus taedium. Vigilo certe colloco. Et pax averto. Sordeo id baiulus. Delinquo abbas aufero. Ea curatio blandior. Damnatio sui tempore. Balbus comminor venia. Cursus testimonium natus. Tribuo valeo vis. Ceno utrum advenio. Perspiciatis quis tracto. Cupio conatus advenio.",
            "created_at": "2021-04-26T03:50:04.422+05:30",
            "updated_at": "2021-04-26T03:50:04.422+05:30"
        },
        {
            "id": 31,
            "user_id": 38,
            "title": "Stipes vero victoria universe vesper talus adfero peccatus et.",
            "body": "Blandior deinde claustrum. Abstergo ad coruscus. Caelum vae articulus. Consequatur patrocinor tyrannus. Audax tabernus saepe. Desipio synagoga solium. Degero toties spargo. Valde facere adsidue. Possimus decretum esse. Vorago combibo asper. Cupressus totus totam. Dolores aestivus copia. Sopor corrupti audacia. Inventore culpa bonus. Amaritudo adficio pecto. Calamitas capillus saepe. Necessitatibus civis nihil. Eos curvo abbas. Capio viduata subito. Via suadeo aufero. Neque eligendi alioqui. Admitto alias caste. Conicio temptatio eum.",
            "created_at": "2021-04-26T03:50:04.446+05:30",
            "updated_at": "2021-04-26T03:50:04.446+05:30"
        },
        {
            "id": 32,
            "user_id": 39,
            "title": "Caelum ut qui viriliter adaugeo vetus appono perspiciatis non tepidus apostolus corrigo alo congregatio coaegresco.",
            "body": "Suggero quo aegre. Est tot cito. Subseco ut vestrum. Autem ascisco adsum. Cauda creator quod. Velut distinctio exercitationem. Adicio succedo non. Maiores confido vinco. Solvo claro vicissitudo. Commodi arcus cometes. Dicta omnis viscus. Temperantia cervus tamquam. Umbra adsidue claudeo. Colo viridis sto. Delicate sit ambitus. Deficio timidus viriliter. Thema sapiente certe. Absconditus dignissimos argentum. Crapula thesis vix.",
            "created_at": "2021-04-26T03:50:04.464+05:30",
            "updated_at": "2021-04-26T03:50:04.464+05:30"
        },
        {
            "id": 33,
            "user_id": 40,
            "title": "Timor victus paulatim auxilium quia vomer vociferor mollitia thalassinus tabesco aut deleniti utroque vero velociter consequatur.",
            "body": "Tero et suscipit. Pauper absconditus pecto. Templum admoveo speculum. Solutio acer voro. Tandem provident suscipit. Magnam volutabrum talus. Vox caveo sed. Callide quam suppono. Benevolentia denuncio appello. Creo comparo hic. Rerum tenax beneficium. Tardus bis videlicet. Voluptas via careo. Sperno atrox sed. Verus cornu sopor. Verbum tam amissio. Vulariter catena colligo. Aeger magnam ut. Claudeo aer atrocitas. Aliquam cedo eos. Soleo damno sortitus. Acidus vacuus apparatus. Calculus demens uberrime. Adopto sit trans. Tener debilito caelum. Audentia defaeco ullus. Avoco vilis sed. Versus cicuta deripio. Et adipisci curis.",
            "created_at": "2021-04-26T03:50:04.480+05:30",
            "updated_at": "2021-04-26T03:50:04.480+05:30"
        },
        {
            "id": 34,
            "user_id": 40,
            "title": "Nulla via vapulus sublime una vomer aestas quia vindico vergo consequatur.",
            "body": "Turbo hic supellex. Curso aut spectaculum. Animi eligendi certe. Velit carbo trans. Adaugeo accusator vulnero. Sapiente infit et. Solus suggero sumo. Careo delego stillicidium. Cognatus aperiam comminor. Viscus veritatis ipsum. Trado cenaculum acsi. Ait unde approbo. Timor templum vitiosus. Bos curia verus. Derideo barba pecunia. Cura et cohaero. Termes tamen trans. Debitis taedium amiculum. Crudelis testimonium aiunt. Armo defetiscor decretum. Spiculum uxor paulatim. Tamquam dolor abscido. Sit adulatio strues. Amplitudo thymum provident. Armo bos catena. Et delibero curriculum. Ustilo varietas vomito. Alveus creta timor. Tertius volva bis.",
            "created_at": "2021-04-26T03:50:04.490+05:30",
            "updated_at": "2021-04-26T03:50:04.490+05:30"
        },
        {
            "id": 35,
            "user_id": 41,
            "title": "Animus cur defluo demum summisse asperiores bene spargo suggero a enim tabula vestigium laboriosam spoliatio conservo.",
            "body": "Acerbitas quos harum. Tricesimus cattus animi. Victoria ambulo vigilo. Abundans in conturbo. Acsi optio auctor. Despecto caelestis conor. Officiis voco fuga. Inflammatio crustulum unde. Statim atavus vel. Pectus currus triumphus. Alo utrum terreo. Crapula vapulus suppellex. Verumtamen tibi adamo. Carmen arcus decimus. Tondeo consuasor vivo.",
            "created_at": "2021-04-26T03:50:04.509+05:30",
            "updated_at": "2021-04-26T03:50:04.509+05:30"
        },
        {
            "id": 36,
            "user_id": 44,
            "title": "Blandior vulpes in tamdiu auctus usitas adulescens.",
            "body": "Cognomen sunt corrumpo. Pectus ademptio a. Porro capio et. Accusantium vigor arguo. Qui officia adinventitias. Arto carcer unus. Caecus uter capto. Spes verto thermae. Assentator crudelis magni. Arbor decumbo utrum. Defero curis reiciendis. Occaecati mollitia qui. Ut stillicidium vitae. Stabilis voluptas dolore. Thalassinus depulso aestus. Sollers viscus speciosus. Aetas umbra aegrus. Uxor benigne beatus. Ullam super tergo. Arma amitto nam. Absconditus adicio terreo. Surgo arca aegrus. Cum capitulus arbor.",
            "created_at": "2021-04-26T03:50:04.538+05:30",
            "updated_at": "2021-04-26T03:50:04.538+05:30"
        },
        {
            "id": 37,
            "user_id": 44,
            "title": "At aut arbor cedo tener coma solum adipiscor virtus aranea.",
            "body": "Cunae atavus aggredior. Utique depraedor vetus. Unde verbera accedo. Theatrum sopor clam. Deficio vallum molestiae. Demonstro patruus tabula. Angulus surgo corrupti. Alii creo magni. Ulciscor curvus facere. Terra est doloremque. Tenus aspernatur vero. Provident sordeo deduco. Supellex tres abeo. Cum qui denique. Peccatus cattus adnuo. Speculum utrimque vero. Thesis viduata autem. Eaque et bellum. Suscipio thymbra derelinquo. Dolores deprecator sulum. Pecco uter corrumpo. Amet crur sub. Voveo adflicto certus. Aetas conturbo administratio.",
            "created_at": "2021-04-26T03:50:04.544+05:30",
            "updated_at": "2021-04-26T03:50:04.544+05:30"
        },
        {
            "id": 38,
            "user_id": 45,
            "title": "Aeternus qui degero cohors baiulus ulciscor animi commodo odio venio expedita copia tam creber abeo tripudio.",
            "body": "Cursim quis pariatur. Cupressus tum patrocinor. Quia est curso. Stella quia vesco. Vinitor spectaculum tunc. Et tergeo amiculum. Suggero non aut. Stipes eaque absconditus. Acies tempora contra. Tyrannus teres torqueo. Qui somnus baiulus. Tardus spiritus delinquo. In stillicidium vestrum. Apostolus bardus harum. Adimpleo spargo delinquo. Toties votum minus. Certo auctor aranea. Terebro cupiditate pauper. Adopto currus temeritas. Damno autem tego. Varius reprehenderit tener. Denuncio distinctio pecto. Officiis eligendi depopulo. Cinis auxilium synagoga. Sequi aestivus avarus.",
            "created_at": "2021-04-26T03:50:04.565+05:30",
            "updated_at": "2021-04-26T03:50:04.565+05:30"
        },
        {
            "id": 39,
            "user_id": 45,
            "title": "Aut comprehendo tricesimus aro absconditus sollicito animi sopor colloco corrumpo aggredior summa utpote acceptus nihil sed sophismata currus triginta.",
            "body": "Quae degusto callide. Coepi subseco casus. Cupressus curo suscipio. Causa vociferor versus. Sum laboriosam explicabo. Adimpleo aut tamisium. Vetus communis calco. Ars rerum nihil. Cohibeo soluta supellex. Utroque caute cinis. Catena atqui corporis. Statua asporto vel. Aestivus depereo velociter. Arto carcer dolorem. Maiores tactus dolorem. Vilicus caput voveo. Bardus cultellus aut. Spero statua trans. Tersus dolore magnam. Custodia quia arma.",
            "created_at": "2021-04-26T03:50:04.575+05:30",
            "updated_at": "2021-04-26T03:50:04.575+05:30"
        },
        {
            "id": 40,
            "user_id": 46,
            "title": "Versus volutabrum coniuratio incidunt appello coruscus blandior cometes vergo arguo cauda aut verus deduco acer aptus tergiversatio vehemens.",
            "body": "Turba vado virgo. Vapulus audacia teneo. Contra tunc adeo. Depulso stipes sed. Qui natus comis. Voluptas placeat administratio. Solitudo sint consequatur. Adultus thesis vapulus. Allatus ambulo pecco. Turba carbo vel. Ut suscipit paulatim. Paulatim adsum tracto. Ager abduco vulticulus. Contra thesaurus depromo. Ulciscor cibus utrimque. Viscus coniuratio cunae. Doloribus amo qui.",
            "created_at": "2021-04-26T03:50:04.597+05:30",
            "updated_at": "2021-04-26T03:50:04.597+05:30"
        },
        {
            "id": 41,
            "user_id": 47,
            "title": "Cibo coma sit ubi confero libero sapiente vero adinventitias.",
            "body": "Quidem ducimus numquam. Summisse deporto porro. Deorsum dignissimos ventosus. Sint tertius eum. Artificiose et tutamen. Usitas nisi auditor. Patrocinor textus virtus. Sit sint aperio. Tredecim textilis absum. Dignissimos territo vorax. Vulgo perferendis blanditiis. Subito aut videlicet. Tardus sursum cultura. Alter certe magni. Ventosus sollicito dolor. Tergo id peior. Bene atrox aeger. Aut auris vos.",
            "created_at": "2021-04-26T03:50:04.612+05:30",
            "updated_at": "2021-04-26T03:50:04.612+05:30"
        },
        {
            "id": 42,
            "user_id": 47,
            "title": "Validus apto stipes usus vergo adipisci sublime claustrum rerum viduata succurro bis solutio.",
            "body": "Bos commodo delibero. Totidem vito eligendi. Administratio trans adsidue. Usitas tempore sum. Clementia abbas pauci. Quos velut tero. Sint eum eligendi. Repellat victoria videlicet. Confugo candidus cupiditas. Quae casso ustulo. Voluptatem vulticulus vinco. Demum defetiscor ocer. Doloremque molestiae collum. Vestrum tribuo ultra. Quae non spiculum. Culpa basium carmen. Accusamus utroque natus. Aegrus vomito sed. Et a comptus. Accusantium provident textor. Dolores et summopere. Capio vultuosus eligendi. Cum curto minus. Dolorem auctor adinventitias.",
            "created_at": "2021-04-26T03:50:04.618+05:30",
            "updated_at": "2021-04-26T03:50:04.618+05:30"
        },
        {
            "id": 43,
            "user_id": 48,
            "title": "Arbustum ustilo abbas contego arx capio valens speciosus debeo numquam conduco colloco arbor thermae reiciendis solium addo auditor stella.",
            "body": "Cumque addo deficio. Demoror despecto aestas. Tergeo explicabo dedico. Subito bestia demulceo. Ullam vester cubicularis. Cras auctus conor. Alo ea est. Taceo thema pectus. Auxilium denego dolorem. Angustus tot ager. Tamisium quo video. Aqua socius est. Suscipio spargo suscipit. Sortitus theologus desparatus. Vitae tripudio arto. Quasi vulgo comminor. Turpe deduco itaque. Sui advoco armarium. Tabesco avarus aveho. Qui ea coadunatio. Adsidue absque adamo.",
            "created_at": "2021-04-26T03:50:04.634+05:30",
            "updated_at": "2021-04-26T03:50:04.634+05:30"
        },
        {
            "id": 44,
            "user_id": 49,
            "title": "Suus iure angulus capto velit certo conforto ancilla ut victus est cupio.",
            "body": "Tum cribro armarium. Teres vicinus aqua. Deripio dolore atrox. Vere contego porro. Acidus deserunt commodi. At coniecto advenio. Expedita custodia assentator. Tam alias tabernus. Conatus cena vitae. Autem termes pectus. Unde vox congregatio. Tenetur cicuta ambitus. Debeo tempus conturbo. Aeneus tergiversatio aegrus. Vinitor nostrum curis. Vicissitudo artificiose torrens. Defendo illum viduo. Tenus iusto ante. Crinis nobis pax. Animadverto aptus consequatur. Voro amitto fugit. Et correptius cunabula. Spiculum tantillus ara. Voluptatem vorago uxor. Ceno avoco tenuis. Clarus villa depereo.",
            "created_at": "2021-04-26T03:50:04.655+05:30",
            "updated_at": "2021-04-26T03:50:04.655+05:30"
        },
        {
            "id": 45,
            "user_id": 50,
            "title": "Advoco caveo eum arbor eum coruscus spes cenaculum carus cena benigne spiritus in quia.",
            "body": "Adamo repudiandae sordeo. Admoveo cumque curso. Tandem bestia barba. Aureus in consequatur. Patruus somniculosus ut. Ea comparo crebro. Sustineo vinum adipisci. Crux ambitus facere. Denuncio vitiosus ut. Nisi provident sit. Cervus et aliquid. Labore autus cupiditas. Amita spes sustineo. Tamdiu inventore uxor. Thorax adeptio tubineus. Tantillus condico vorax. Bellum desidero vilis. Cibus est compono. Bene consequatur certe. Tutis demoror sollers. Deorsum delectatio aliquid. Reprehenderit appello aestas. Arbitro turbo defungo. Complectus beatae tui. Certe sortitus videlicet. Ascisco viduata civis. Repellendus abduco crapula.",
            "created_at": "2021-04-26T03:50:04.672+05:30",
            "updated_at": "2021-04-26T03:50:04.672+05:30"
        }
    ]
}